<?xml version="1.0" encoding="UTF-8" standalone="no"?>
<svg
   xmlns:dc="http://purl.org/dc/elements/1.1/"
   xmlns:cc="http://creativecommons.org/ns#"
   xmlns:rdf="http://www.w3.org/1999/02/22-rdf-syntax-ns#"
   xmlns:svg="http://www.w3.org/2000/svg"
   xmlns="http://www.w3.org/2000/svg"
   xmlns:sodipodi="http://sodipodi.sourceforge.net/DTD/sodipodi-0.dtd"
   xmlns:inkscape="http://www.inkscape.org/namespaces/inkscape"
   viewBox="0 0 21.41 14.44"
   version="1.1"
   id="svg10"
   sodipodi:docname="mail.svg"
   inkscape:version="0.92.1 r15371">
  <metadata
     id="metadata16">
    <rdf:RDF>
      <cc:Work
         rdf:about="">
        <dc:format>image/svg+xml</dc:format>
        <dc:type
           rdf:resource="http://purl.org/dc/dcmitype/StillImage" />
      </cc:Work>
    </rdf:RDF>
  </metadata>
  <defs
     id="defs14" />
  <sodipodi:namedview
     pagecolor="#ffffff"
     bordercolor="#666666"
     borderopacity="1"
     objecttolerance="10"
     gridtolerance="10"
     guidetolerance="10"
     inkscape:pageopacity="0"
     inkscape:pageshadow="2"
     inkscape:window-width="640"
     inkscape:window-height="480"
     id="namedview12"
     showgrid="false"
     inkscape:zoom="13.545072"
     inkscape:cx="10.705"
     inkscape:cy="7.2199998"
     inkscape:window-x="0"
     inkscape:window-y="0"
     inkscape:window-maximized="0"
     inkscape:current-layer="svg10" />
  <title
     id="title2">Asset 2</title>
  <g
     id="Layer_2"
     data-name="Layer 2"
     style="fill:#ffffff">
    <g
       id="Camada_1"
       data-name="Camada 1"
       style="fill:#ffffff">
      <path
         d="M21,0H.43A.43.43,0,0,0,0,.44V14a.44.44,0,0,0,.43.44H21a.44.44,0,0,0,.44-.44V.44A.44.44,0,0,0,21,0m-.44,13.57H.87V.87H20.54Z"
         id="path4"
         style="fill:#ffffff" />
      <path
         d="M10.45,8.93a.44.44,0,0,0,.26.08A.45.45,0,0,0,11,8.93L19.29,2.8a.44.44,0,1,0-.52-.7L10.71,8,2.64,2.1a.44.44,0,0,0-.52.7Z"
         id="path6"
         style="fill:#ffffff" />
    </g>
  </g>
</svg>
